Project 1: Wrangling & Exploratory Data Analysis
…
library(tidyverse)

life1 <- life %>% pivot_wider(names_from = "year", values_from = "life_expectancy") %>% 
    select(country, code, life_expectancy = "2010")
life1

## # A tibble: 241 x 3
##    country             code  life_expectancy
##    <fct>               <fct>           <dbl>
##  1 Afghanistan         "AFG"            61.2
##  2 Africa              ""               58.7
##  3 Albania             "ALB"            76.7
##  4 Algeria             "DZA"            74.7
##  5 Angola              "AGO"            58.2
##  6 Antigua and Barbuda "ATG"            75.4
##  7 Argentina           "ARG"            75.6
##  8 Armenia             "ARM"            73.3
##  9 Aruba               "ABW"            75.0
## 10 Asia                ""               71.1
## # … with 231 more rows

life %>% pivot_wider(names_from = "year", values_from = "life_expectancy") %>% 
    pivot_longer(is.numeric, names_to = "year", values_to = "life_expectancy")

## # A tibble: 73,987 x 4
##    country     code  year  life_expectancy
##    <fct>       <fct> <chr>           <dbl>
##  1 Afghanistan AFG   1950             27.5
##  2 Afghanistan AFG   1951             27.8
##  3 Afghanistan AFG   1952             28.4
##  4 Afghanistan AFG   1953             28.9
##  5 Afghanistan AFG   1954             29.4
##  6 Afghanistan AFG   1955             29.9
##  7 Afghanistan AFG   1956             30.4
##  8 Afghanistan AFG   1957             30.9
##  9 Afghanistan AFG   1958             31.4
## 10 Afghanistan AFG   1959             31.8
## # … with 73,977 more rows
…
anti_join(life1, drinks)

## # A tibble: 62 x 3
##    country               code       life_expectancy
##    <fct>                 <fct>                <dbl>
##  1 Africa                ""                    58.7
##  2 Aruba                 "ABW"                 75.0
##  3 Asia                  ""                    71.1
##  4 Australia/New Zealand ""                    81.7
##  5 Cape Verde            "CPV"                 71.9
##  6 Caribbean             ""                    71.9
##  7 Central America       ""                    75.3
##  8 Central Asia          ""                    68.7
##  9 Channel Islands       "OWID_CIS"            80.1
## 10 Curacao               "CUW"                 77.0
## # … with 52 more rows
…
Visualizing: Heatmap

The following is a correlation heatmap. As shown in the heatmap, all of the correlations between the alcohol-related variables and life expectancy did not have a strong correlation (between .37 to .48). However, it is shown that total pure alcohol consumption was strongly correlated with beer servings, showing that a greater amount of beer consumed correlates with a greater total amount of alcohol consumed in general.

# correlation heat map
tidycor <- cormat %>% as.data.frame %>% rownames_to_column("var1") %>% 
    pivot_longer(-1, names_to = "var2", values_to = "correlation")

tidycor

## # A tibble: 25 x 3
##    var1            var2            correlation
##    <chr>           <chr>                 <dbl>
##  1 life_expectancy life_expectancy       1    
##  2 life_expectancy beer_servings         0.427
##  3 life_expectancy spirit_servings       0.367
##  4 life_expectancy wine_servings         0.483
##  5 life_expectancy total_alc             0.387
##  6 beer_servings   life_expectancy       0.427
##  7 beer_servings   beer_servings         1    
##  8 beer_servings   spirit_servings       0.484
##  9 beer_servings   wine_servings         0.535
## 10 beer_servings   total_alc             0.842
## # … with 15 more rows
…
